time ./launch.sh 1024
 INFO | 27/12 12:46:59 | Main | Warming up the engines ... 10 seconds sleep time
*** [JaPeClassLoader init ]sun.misc.Launcher$AppClassLoader
[ClassLoader] load be.pw999.jape.TestRunner
[ClassLoader] load be.pw999.jape.constants.Settings
[ClassLoader] load be.pw999.jape.exceptions.InitializationException
 INFO | 27/12 12:47:09 | TestRunner | Run classloader is be.pw999.jape.classloader.JaPeClassLoader
[ClassLoader] load be.pw999.jape.tests.utils.TestScraper
[ClassLoader] load be.pw999.jape.tests.ITest
 INFO | 27/12 12:47:09 | TestRunner | Found 21 test classes
 INFO | 27/12 12:47:09 | TestRunner | Pre-Loading test class HashMapTest iteration -1
[ClassLoader] load be.pw999.jape.tests.impl.map.HashMapTest
[ClassLoader] load be.pw999.jape.tests.AbstractMapTest
[ClassLoader] load be.pw999.jape.tests.AbstractTest
[ClassLoader] load be.pw999.jape.tests.utils.TestUtils
[ClassLoader] load be.pw999.jape.annotations.Test
[ClassLoader] load be.pw999.jape.utils.ReflectionUtils
[ClassLoader] load be.pw999.jape.annotations.DirtiesObject
[ClassLoader] load be.pw999.jape.annotations.NotInfinite
[ClassLoader] load be.pw999.jape.utils.GCManager
 INFO | 27/12 12:47:10 | TestRunner | Pre-Loading test class StringTest iteration -1
[ClassLoader] load be.pw999.jape.tests.impl.string.StringTest
[ClassLoader] load be.pw999.jape.tests.AbstractStringTest
 INFO | 27/12 12:47:13 | TestRunner | Pre-Loading test class LinkedHashMapTest iteration -1
[ClassLoader] load be.pw999.jape.tests.impl.map.LinkedHashMapTest
 INFO | 27/12 12:47:14 | TestRunner | Pre-Loading test class LinkedHashSetTest iteration -1
[ClassLoader] load be.pw999.jape.tests.impl.collection.LinkedHashSetTest
[ClassLoader] load be.pw999.jape.tests.AbstractCollectionTest
 INFO | 27/12 12:47:14 | TestRunner | Pre-Loading test class ArrayTest iteration -1
[ClassLoader] load be.pw999.jape.tests.impl.collection.ArrayTest
 INFO | 27/12 12:47:14 | TestRunner | Pre-Loading test class TreeSetTest iteration -1
[ClassLoader] load be.pw999.jape.tests.impl.collection.TreeSetTest
 INFO | 27/12 12:47:15 | TestRunner | Pre-Loading test class DoubleTest iteration -1
[ClassLoader] load be.pw999.jape.tests.impl.arithmetic.DoubleTest
[ClassLoader] load be.pw999.jape.tests.AbstractArithmeticTest
 INFO | 27/12 12:47:16 | TestRunner | Pre-Loading test class StringBufferTest iteration -1
[ClassLoader] load be.pw999.jape.tests.impl.string.StringBufferTest
 INFO | 27/12 12:47:16 | TestRunner | Pre-Loading test class ArrayListTest iteration -1
[ClassLoader] load be.pw999.jape.tests.impl.collection.ArrayListTest
[ClassLoader] load be.pw999.jape.tests.AbstractListTest
 INFO | 27/12 12:47:17 | TestRunner | Pre-Loading test class LinkedListTest iteration -1
[ClassLoader] load be.pw999.jape.tests.impl.collection.LinkedListTest
 INFO | 27/12 12:47:18 | TestRunner | Pre-Loading test class IntegerTest iteration -1
[ClassLoader] load be.pw999.jape.tests.impl.arithmetic.IntegerTest
 INFO | 27/12 12:47:19 | TestRunner | Pre-Loading test class StringBufferWithCapacityTest iteration -1
[ClassLoader] load be.pw999.jape.tests.impl.string.StringBufferWithCapacityTest
 INFO | 27/12 12:47:19 | TestRunner | Pre-Loading test class BooleanTest iteration -1
[ClassLoader] load be.pw999.jape.tests.impl.BooleanTest
 INFO | 27/12 12:47:20 | TestRunner | Pre-Loading test class StackTest iteration -1
[ClassLoader] load be.pw999.jape.tests.impl.collection.StackTest
 INFO | 27/12 12:47:20 | TestRunner | Pre-Loading test class TreeMapTest iteration -1
[ClassLoader] load be.pw999.jape.tests.impl.map.TreeMapTest
 INFO | 27/12 12:47:23 | TestRunner | Pre-Loading test class BasicLoopTest iteration -1
[ClassLoader] load be.pw999.jape.tests.impl.BasicLoopTest
 INFO | 27/12 12:47:23 | TestRunner | Pre-Loading test class WeakHashMapTest iteration -1
[ClassLoader] load be.pw999.jape.tests.impl.map.WeakHashMapTest
 INFO | 27/12 12:47:24 | TestRunner | Pre-Loading test class StringBuilderWithCapacityTest iteration -1
[ClassLoader] load be.pw999.jape.tests.impl.string.StringBuilderWithCapacityTest
 INFO | 27/12 12:47:24 | TestRunner | Pre-Loading test class StringBuilderTest iteration -1
[ClassLoader] load be.pw999.jape.tests.impl.string.StringBuilderTest
 INFO | 27/12 12:47:24 | TestRunner | Pre-Loading test class BaseTest iteration -1
[ClassLoader] load be.pw999.jape.tests.impl.BaseTest
 INFO | 27/12 12:47:24 | TestRunner | Pre-Loading test class HashSetTest iteration -1
[ClassLoader] load be.pw999.jape.tests.impl.collection.HashSetTest
[ClassLoader] load be.pw999.jape.exporters.ExcelExporter
[ClassLoader] load be.pw999.jape.exceptions.ExportException
[ClassLoader] load be.pw999.jape.models.Result
 WARN | 27/12 12:47:25 | Result | Negative duration foundResult{declaringClass=ITest, declaredMethod=wait, duration=-9.223372036854776E18}
[ClassLoader] load be.pw999.jape.utils.SysinfoUtils
 INFO | 27/12 12:47:25 | TestRunner | ************************************************************************
 INFO | 27/12 12:47:25 | TestRunner | *  Initial object size:       1024                                     *
 INFO | 27/12 12:47:25 | TestRunner | *  Ms time precision:         1ms                                      *
 INFO | 27/12 12:47:25 | TestRunner | *  Number of loops:           100000 (Integer.MAX_VALUE/21474)         *
 INFO | 27/12 12:47:25 | TestRunner | * CPU Mhz:                    1600                                     *
 INFO | 27/12 12:47:25 | TestRunner | * CPU Model:                  Core(TM)2 CPU         T5200  @ 1.60GHz   *
 INFO | 27/12 12:47:25 | TestRunner | * CPU Vendor:                 Intel                                    *
 INFO | 27/12 12:47:25 | TestRunner | * Input args:                 -Xms768m -Xmx768m -Xmn736m -XX:PermSize=16m -XX:MaxPermSize=128m -XX:SurvivorRatio=64 -XX:+PrintGC -XX:+PrintGCDetails -XX:+PrintGCTimeStamps -XX:+UseConcMarkSweepGC -Xloggc:gc.log -Dfile.encoding=UTF-8 *
 INFO | 27/12 12:47:25 | TestRunner | * Java Arch DM:               32                                       *
 INFO | 27/12 12:47:25 | TestRunner | * Java Vendor:                Oracle Corporation                       *
 INFO | 27/12 12:47:25 | TestRunner | * Java Version:               1.7.0_09                                 *
 INFO | 27/12 12:47:25 | TestRunner | * Max CMS Old Gen (mxb):      32Mb                                     *
 INFO | 27/12 12:47:25 | TestRunner | * Max CMS Perm Gen (mxb):     128Mb                                    *
 INFO | 27/12 12:47:25 | TestRunner | * Max Code Cache (mxb):       32Mb                                     *
 INFO | 27/12 12:47:25 | TestRunner | * Max Mem (runtime):          756Mb                                    *
 INFO | 27/12 12:47:25 | TestRunner | * Max Par Eden Space (mxb):   713Mb                                    *
 INFO | 27/12 12:47:25 | TestRunner | * Max Par Survivor Space (mxb):11Mb                                    *
 INFO | 27/12 12:47:25 | TestRunner | * OS Arch:                    i386                                     *
 INFO | 27/12 12:47:25 | TestRunner | * OS Name:                    Linux                                    *
 INFO | 27/12 12:47:25 | TestRunner | * OS Version:                 3.5.0-17-generic                         *
 INFO | 27/12 12:47:25 | TestRunner | ************************************************************************
 INFO | 27/12 12:47:25 | TestRunner | Starting test class HashMapTest
[ClassLoader] load be.pw999.jape.annotations.TestSuite
 INFO | 27/12 12:49:10 | TestRunner | Starting test class StringTest
 INFO | 27/12 12:49:46 | TestRunner | Starting test class LinkedHashMapTest
 INFO | 27/12 12:51:30 | TestRunner | Starting test class LinkedHashSetTest
 INFO | 27/12 12:52:40 | TestRunner | Starting test class ArrayTest
 INFO | 27/12 12:52:40 | TestRunner | Starting test class TreeSetTest
 INFO | 27/12 12:53:33 | TestRunner | Starting test class DoubleTest
 INFO | 27/12 12:53:34 | TestRunner | Starting test class StringBufferTest
 INFO | 27/12 12:53:35 | TestRunner | Starting test class ArrayListTest
 INFO | 27/12 12:53:52 | TestRunner | Starting test class LinkedListTest
 INFO | 27/12 12:56:06 | TestRunner | Starting test class IntegerTest
 INFO | 27/12 12:56:07 | TestRunner | Starting test class StringBufferWithCapacityTest
 INFO | 27/12 12:56:08 | TestRunner | Starting test class BooleanTest
 INFO | 27/12 12:56:08 | TestRunner | Starting test class StackTest
 INFO | 27/12 12:56:28 | TestRunner | Starting test class TreeMapTest
 INFO | 27/12 13:01:15 | TestRunner | Starting test class BasicLoopTest
 INFO | 27/12 13:01:16 | TestRunner | Starting test class WeakHashMapTest
 INFO | 27/12 13:01:25 | TestRunner | Starting test class StringBuilderWithCapacityTest
 INFO | 27/12 13:01:26 | TestRunner | Starting test class StringBuilderTest
 INFO | 27/12 13:01:26 | TestRunner | Starting test class BaseTest
 INFO | 27/12 13:02:31 | TestRunner | Starting test class HashSetTest
 INFO | 27/12 13:03:41 | ExcelExporter | Starting export to excel
 INFO | 27/12 13:03:42 | ExcelExporter | Creating sheet SysInfo
 INFO | 27/12 13:03:42 | ExcelExporter | Creating sheet CollectionSuite
[ClassLoader] load be.pw999.jape.models.comparator.ResultFullTestIdComparator
 INFO | 27/12 13:03:42 | ExcelExporter | Creating sheet ArithmeticSuite
 INFO | 27/12 13:03:42 | ExcelExporter | Creating sheet MapSuite
 INFO | 27/12 13:03:42 | ExcelExporter | Creating sheet defaultSuite
 INFO | 27/12 13:03:42 | ExcelExporter | Creating sheet StringSuite
 INFO | 27/12 13:03:42 | ExcelExporter | Creating sheet CollectionSuite(group)
 INFO | 27/12 13:03:43 | ExcelExporter | Creating sheet ArithmeticSuite(group)
 INFO | 27/12 13:03:43 | ExcelExporter | Creating sheet MapSuite(group)
 INFO | 27/12 13:03:43 | ExcelExporter | Creating sheet defaultSuite(group)
 INFO | 27/12 13:03:43 | ExcelExporter | Creating sheet StringSuite(group)
 INFO | 27/12 13:03:43 | ExcelExporter | Finished exporting to Excel
*** [JaPeClassLoader cleared ]
*** [JaPeClassLoader init ]sun.misc.Launcher$AppClassLoader
[ClassLoader] load be.pw999.jape.TestRunner
[ClassLoader] load be.pw999.jape.constants.Settings
[ClassLoader] load be.pw999.jape.exceptions.InitializationException
 INFO | 27/12 13:03:43 | TestRunner | Run classloader is be.pw999.jape.classloader.JaPeClassLoader
[ClassLoader] load be.pw999.jape.tests.utils.TestScraper
[ClassLoader] load be.pw999.jape.tests.ITest
 INFO | 27/12 13:03:43 | TestRunner | Found 21 test classes
 INFO | 27/12 13:03:43 | TestRunner | Pre-Loading test class HashMapTest iteration -1
[ClassLoader] load be.pw999.jape.tests.impl.map.HashMapTest
[ClassLoader] load be.pw999.jape.tests.AbstractMapTest
[ClassLoader] load be.pw999.jape.tests.AbstractTest
[ClassLoader] load be.pw999.jape.tests.utils.TestUtils
[ClassLoader] load be.pw999.jape.annotations.Test
[ClassLoader] load be.pw999.jape.utils.ReflectionUtils
[ClassLoader] load be.pw999.jape.annotations.DirtiesObject
[ClassLoader] load be.pw999.jape.annotations.NotInfinite
[ClassLoader] load be.pw999.jape.utils.GCManager
 INFO | 27/12 13:03:46 | TestRunner | Pre-Loading test class StringTest iteration -1
[ClassLoader] load be.pw999.jape.tests.impl.string.StringTest
[ClassLoader] load be.pw999.jape.tests.AbstractStringTest
 INFO | 27/12 13:04:28 | TestRunner | Pre-Loading test class LinkedHashMapTest iteration -1
[ClassLoader] load be.pw999.jape.tests.impl.map.LinkedHashMapTest
 INFO | 27/12 13:04:31 | TestRunner | Pre-Loading test class LinkedHashSetTest iteration -1
[ClassLoader] load be.pw999.jape.tests.impl.collection.LinkedHashSetTest
[ClassLoader] load be.pw999.jape.tests.AbstractCollectionTest
 INFO | 27/12 13:04:33 | TestRunner | Pre-Loading test class ArrayTest iteration -1
[ClassLoader] load be.pw999.jape.tests.impl.collection.ArrayTest
 INFO | 27/12 13:04:34 | TestRunner | Pre-Loading test class TreeSetTest iteration -1
[ClassLoader] load be.pw999.jape.tests.impl.collection.TreeSetTest
 INFO | 27/12 13:04:35 | TestRunner | Pre-Loading test class DoubleTest iteration -1
[ClassLoader] load be.pw999.jape.tests.impl.arithmetic.DoubleTest
[ClassLoader] load be.pw999.jape.tests.AbstractArithmeticTest
 INFO | 27/12 13:04:37 | TestRunner | Pre-Loading test class StringBufferTest iteration -1
[ClassLoader] load be.pw999.jape.tests.impl.string.StringBufferTest
 INFO | 27/12 13:04:37 | TestRunner | Pre-Loading test class ArrayListTest iteration -1
[ClassLoader] load be.pw999.jape.tests.impl.collection.ArrayListTest
[ClassLoader] load be.pw999.jape.tests.AbstractListTest
 INFO | 27/12 13:04:38 | TestRunner | Pre-Loading test class LinkedListTest iteration -1
[ClassLoader] load be.pw999.jape.tests.impl.collection.LinkedListTest
 INFO | 27/12 13:05:04 | TestRunner | Pre-Loading test class IntegerTest iteration -1
[ClassLoader] load be.pw999.jape.tests.impl.arithmetic.IntegerTest
 INFO | 27/12 13:05:05 | TestRunner | Pre-Loading test class StringBufferWithCapacityTest iteration -1
[ClassLoader] load be.pw999.jape.tests.impl.string.StringBufferWithCapacityTest
 INFO | 27/12 13:05:06 | TestRunner | Pre-Loading test class BooleanTest iteration -1
[ClassLoader] load be.pw999.jape.tests.impl.BooleanTest
 INFO | 27/12 13:05:06 | TestRunner | Pre-Loading test class StackTest iteration -1
[ClassLoader] load be.pw999.jape.tests.impl.collection.StackTest
 INFO | 27/12 13:05:07 | TestRunner | Pre-Loading test class TreeMapTest iteration -1
[ClassLoader] load be.pw999.jape.tests.impl.map.TreeMapTest
 INFO | 27/12 13:05:20 | TestRunner | Pre-Loading test class BasicLoopTest iteration -1
[ClassLoader] load be.pw999.jape.tests.impl.BasicLoopTest
 INFO | 27/12 13:05:20 | TestRunner | Pre-Loading test class WeakHashMapTest iteration -1
[ClassLoader] load be.pw999.jape.tests.impl.map.WeakHashMapTest
 INFO | 27/12 13:05:21 | TestRunner | Pre-Loading test class StringBuilderWithCapacityTest iteration -1
[ClassLoader] load be.pw999.jape.tests.impl.string.StringBuilderWithCapacityTest
 INFO | 27/12 13:05:22 | TestRunner | Pre-Loading test class StringBuilderTest iteration -1
[ClassLoader] load be.pw999.jape.tests.impl.string.StringBuilderTest
 INFO | 27/12 13:05:22 | TestRunner | Pre-Loading test class BaseTest iteration -1
[ClassLoader] load be.pw999.jape.tests.impl.BaseTest
 INFO | 27/12 13:05:22 | TestRunner | Pre-Loading test class HashSetTest iteration -1
[ClassLoader] load be.pw999.jape.tests.impl.collection.HashSetTest
[ClassLoader] load be.pw999.jape.exporters.ExcelExporter
[ClassLoader] load be.pw999.jape.exceptions.ExportException
[ClassLoader] load be.pw999.jape.models.Result
 WARN | 27/12 13:05:24 | Result | Negative duration foundResult{declaringClass=ITest, declaredMethod=wait, duration=-9.223372036854776E18}
[ClassLoader] load be.pw999.jape.utils.SysinfoUtils
 INFO | 27/12 13:05:24 | TestRunner | ************************************************************************
 INFO | 27/12 13:05:24 | TestRunner | *  Initial object size:       4096                                     *
 INFO | 27/12 13:05:24 | TestRunner | *  Ms time precision:         1ms                                      *
 INFO | 27/12 13:05:24 | TestRunner | *  Number of loops:           100000 (Integer.MAX_VALUE/21474)         *
 INFO | 27/12 13:05:24 | TestRunner | * CPU Mhz:                    1600                                     *
 INFO | 27/12 13:05:24 | TestRunner | * CPU Model:                  Core(TM)2 CPU         T5200  @ 1.60GHz   *
 INFO | 27/12 13:05:24 | TestRunner | * CPU Vendor:                 Intel                                    *
 INFO | 27/12 13:05:24 | TestRunner | * Input args:                 -Xms768m -Xmx768m -Xmn736m -XX:PermSize=16m -XX:MaxPermSize=128m -XX:SurvivorRatio=64 -XX:+PrintGC -XX:+PrintGCDetails -XX:+PrintGCTimeStamps -XX:+UseConcMarkSweepGC -Xloggc:gc.log -Dfile.encoding=UTF-8 *
 INFO | 27/12 13:05:24 | TestRunner | * Java Arch DM:               32                                       *
 INFO | 27/12 13:05:24 | TestRunner | * Java Vendor:                Oracle Corporation                       *
 INFO | 27/12 13:05:24 | TestRunner | * Java Version:               1.7.0_09                                 *
 INFO | 27/12 13:05:24 | TestRunner | * Max CMS Old Gen (mxb):      32Mb                                     *
 INFO | 27/12 13:05:24 | TestRunner | * Max CMS Perm Gen (mxb):     128Mb                                    *
 INFO | 27/12 13:05:24 | TestRunner | * Max Code Cache (mxb):       32Mb                                     *
 INFO | 27/12 13:05:24 | TestRunner | * Max Mem (runtime):          756Mb                                    *
 INFO | 27/12 13:05:24 | TestRunner | * Max Par Eden Space (mxb):   713Mb                                    *
 INFO | 27/12 13:05:24 | TestRunner | * Max Par Survivor Space (mxb):11Mb                                    *
 INFO | 27/12 13:05:24 | TestRunner | * OS Arch:                    i386                                     *
 INFO | 27/12 13:05:24 | TestRunner | * OS Name:                    Linux                                    *
 INFO | 27/12 13:05:24 | TestRunner | * OS Version:                 3.5.0-17-generic                         *
 INFO | 27/12 13:05:24 | TestRunner | ************************************************************************
 INFO | 27/12 13:05:24 | TestRunner | Starting test class HashMapTest
[ClassLoader] load be.pw999.jape.annotations.TestSuite
 INFO | 27/12 13:12:36 | TestRunner | Starting test class StringTest
 INFO | 27/12 13:13:13 | TestRunner | Starting test class LinkedHashMapTest
 INFO | 27/12 13:20:16 | TestRunner | Starting test class LinkedHashSetTest
 INFO | 27/12 13:24:54 | TestRunner | Starting test class ArrayTest
 INFO | 27/12 13:24:57 | TestRunner | Starting test class TreeSetTest
 INFO | 27/12 13:28:23 | TestRunner | Starting test class DoubleTest
 INFO | 27/12 13:28:24 | TestRunner | Starting test class StringBufferTest
 INFO | 27/12 13:28:27 | TestRunner | Starting test class ArrayListTest
 INFO | 27/12 13:29:36 | TestRunner | Starting test class LinkedListTest
 INFO | 27/12 14:10:56 | TestRunner | Starting test class IntegerTest
 INFO | 27/12 14:10:57 | TestRunner | Starting test class StringBufferWithCapacityTest
 INFO | 27/12 14:11:00 | TestRunner | Starting test class BooleanTest
 INFO | 27/12 14:11:00 | TestRunner | Starting test class StackTest
 INFO | 27/12 14:12:20 | TestRunner | Starting test class TreeMapTest
 INFO | 27/12 14:34:47 | TestRunner | Starting test class BasicLoopTest
 INFO | 27/12 14:34:49 | TestRunner | Starting test class WeakHashMapTest
 INFO | 27/12 14:35:19 | TestRunner | Starting test class StringBuilderWithCapacityTest
 INFO | 27/12 14:35:22 | TestRunner | Starting test class StringBuilderTest
 INFO | 27/12 14:35:25 | TestRunner | Starting test class BaseTest
 INFO | 27/12 14:37:10 | TestRunner | Starting test class HashSetTest
 INFO | 27/12 14:41:53 | ExcelExporter | Starting export to excel
 INFO | 27/12 14:41:54 | ExcelExporter | Creating sheet SysInfo
 INFO | 27/12 14:41:54 | ExcelExporter | Creating sheet CollectionSuite
[ClassLoader] load be.pw999.jape.models.comparator.ResultFullTestIdComparator
 INFO | 27/12 14:41:55 | ExcelExporter | Creating sheet ArithmeticSuite
 INFO | 27/12 14:41:55 | ExcelExporter | Creating sheet MapSuite
 INFO | 27/12 14:41:55 | ExcelExporter | Creating sheet defaultSuite
 INFO | 27/12 14:41:55 | ExcelExporter | Creating sheet StringSuite
 INFO | 27/12 14:41:56 | ExcelExporter | Creating sheet CollectionSuite(group)
 INFO | 27/12 14:41:56 | ExcelExporter | Creating sheet ArithmeticSuite(group)
 INFO | 27/12 14:41:56 | ExcelExporter | Creating sheet MapSuite(group)
 INFO | 27/12 14:41:56 | ExcelExporter | Creating sheet defaultSuite(group)
 INFO | 27/12 14:41:56 | ExcelExporter | Creating sheet StringSuite(group)
 INFO | 27/12 14:41:56 | ExcelExporter | Finished exporting to Excel
*** [JaPeClassLoader cleared ]

real	114m57.527s
user	114m12.372s
sys	0m35.014s

